<?xml version="1.0" encoding="UTF-8" standalone="no"?>
<svg
   xmlns:dc="http://purl.org/dc/elements/1.1/"
   xmlns:cc="http://creativecommons.org/ns#"
   xmlns:rdf="http://www.w3.org/1999/02/22-rdf-syntax-ns#"
   xmlns:svg="http://www.w3.org/2000/svg"
   xmlns="http://www.w3.org/2000/svg"
   version="1.1"
   viewBox="0 0 12.425969 13.158298"
   height="16px"
   width="16px">
  <metadata>
    <rdf:RDF>
      <cc:Work
         rdf:about="">
        <dc:format>image/svg+xml</dc:format>
        <dc:type
           rdf:resource="http://purl.org/dc/dcmitype/StillImage" />
        <dc:title></dc:title>
      </cc:Work>
    </rdf:RDF>
  </metadata>
  <g
     transform="translate(185.27919,-108.48437)">
    <circle
       r="2.6222098"
       style="fill:#da2037;fill-opacity:1;stroke-width:0.26458332"
       cy="111.10658"
       cx="-182.65698" />
    <circle
       cx="-175.47543"
       cy="111.10658"
       style="fill:#da2037;fill-opacity:1;stroke-width:0.26458332"
       r="2.6222098" />
    <circle
       r="2.6222098"
       style="fill:#da2037;fill-opacity:1;stroke-width:0.26458332"
       cy="119.02046"
       cx="-175.47543" />
    <circle
       cx="-182.65698"
       cy="119.02046"
       style="fill:#da2037;fill-opacity:1;stroke-width:0.26458332"
       r="2.6222098" />
  </g>
</svg>
